(module c_0805 (layer F.Cu)
  (descr "SMT capacitor, 0805")
  (fp_text reference c_0805 (at 0 -0.9906) (layer F.SilkS)
    (effects (font (size 0.29972 0.29972) (thickness 0.06096)))
  )
  (fp_text value C*** (at 0 0.9906) (layer F.SilkS) hide
    (effects (font (size 0.29972 0.29972) (thickness 0.06096)))
  )
  (fp_line (start 0.635 -0.635) (end 0.635 0.635) (layer F.SilkS) (width 0.127))
  (fp_line (start -0.635 -0.635) (end -0.635 0.6096) (layer F.SilkS) (width 0.127))
  (fp_line (start -1.016 -0.635) (end 1.016 -0.635) (layer F.SilkS) (width 0.127))
  (fp_line (start 1.016 -0.635) (end 1.016 0.635) (layer F.SilkS) (width 0.127))
  (fp_line (start 1.016 0.635) (end -1.016 0.635) (layer F.SilkS) (width 0.127))
  (fp_line (start -1.016 0.635) (end -1.016 -0.635) (layer F.SilkS) (width 0.127))
  (pad 1 smd rect (at 0.9525 0) (size 1.30048 1.4986) (layers F.Cu F.Paste F.Mask))
  (pad 2 smd rect (at -0.9525 0) (size 1.30048 1.4986) (layers F.Cu F.Paste F.Mask))
  (model ${KIPRJMOD}/imported/kicadlib_macrofab/3d/c_0805.wrl
    (at (xyz 0 0 0))
    (scale (xyz 1 1 1))
    (rotate (xyz 0 0 0))
  )
)
